ggplot - demo
…
Annual escapement by Species, Region, and Year * only for Sockeye, Chinook, Coho, Pink, Chum

annual<- esc %>% 
  separate(sampleDate, into = c("year", "month", "day"), sep = "-", remove = F) %>% 
  mutate(year = as.numeric(year)) %>% 
  #mutate(Year = lubridate::year(as.Date(sampleDate))) #This is the way to use lubridate
  filter(Species == "Sockeye" | Species == "Chinook" | Species == "Coho" | Species == "Pink"| 
           Species == "Chum") %>% 
 #filter(Species %in% c("Sockeye", "Chinkook", "Coho", "Chum", "Pink")) %>% 
  group_by(Species, SASAP.Region, year) %>% 
  summarise(escapement= sum(DailyCount))

annual

## # A tibble: 1,484 x 4
## # Groups:   Species, SASAP.Region [39]
##    Species SASAP.Region                           year escapement
##    <chr>   <chr>                                 <dbl>      <int>
##  1 Chinook Alaska Peninsula and Aleutian Islands  1974       1092
##  2 Chinook Alaska Peninsula and Aleutian Islands  1975       1917
##  3 Chinook Alaska Peninsula and Aleutian Islands  1976       3045
##  4 Chinook Alaska Peninsula and Aleutian Islands  1977       4844
##  5 Chinook Alaska Peninsula and Aleutian Islands  1978       3901
##  6 Chinook Alaska Peninsula and Aleutian Islands  1979      10463
##  7 Chinook Alaska Peninsula and Aleutian Islands  1980       4506
##  8 Chinook Alaska Peninsula and Aleutian Islands  1981       5046
##  9 Chinook Alaska Peninsula and Aleutian Islands  1982       6503
## 10 Chinook Alaska Peninsula and Aleutian Islands  1983      11589
## #  with 1,474 more rows
…
